…
    ## See spec(...) for full column specifications.

``` r
NYC_Subway_Data = janitor::clean_names(NYC_Subway_Data)

## visual check of the data
NYC_Subway_Data
```

    ## # A tibble: 1,868 x 32
    ##   division line  station_name station_latitude station_longitu… route1
    ##   <chr>    <chr> <chr>                   <dbl>            <dbl> <chr> 
    ## 1 BMT      4 Av… 25th St                  40.7            -74.0 R     
    ## 2 BMT      4 Av… 25th St                  40.7            -74.0 R     
    ## 3 BMT      4 Av… 36th St                  40.7            -74.0 N     
    ## 4 BMT      4 Av… 36th St                  40.7            -74.0 N     
    ## 5 BMT      4 Av… 36th St                  40.7            -74.0 N     
    ## # ... with 1,863 more rows, and 26 more variables: route2 <chr>,
    ## #   route3 <chr>, route4 <chr>, route5 <chr>, route6 <chr>, route7 <chr>,
    ## #   route8 <int>, route9 <int>, route10 <int>, route11 <int>,
    ## #   entrance_type <chr>, entry <chr>, exit_only <chr>, vending <chr>,
    ## #   staffing <chr>, staff_hours <chr>, ada <lgl>, ada_notes <chr>,
    ## #   free_crossover <lgl>, north_south_street <chr>,
    ## #   east_west_street <chr>, corner <chr>, entrance_latitude <dbl>,
    ## #   entrance_longitude <dbl>, station_location <chr>,
    ## #   entrance_location <chr>
…
Cleaning the data; retain line, station, name, station latitude /
longitude, routes served, entry, vending, entrance type, and ADA
compliance

``` r
select(NYC_Subway_Data, line, station_name, station_latitude, station_longitude, route1, route2, route3, route4, route5, route6, route7, route8, route9, route10, route11, entrance_type, entry, vending, ada)
```

    ## # A tibble: 1,868 x 19
    ##   line  station_name station_latitude station_longitu… route1 route2 route3
    ##   <chr> <chr>                   <dbl>            <dbl> <chr>  <chr>  <chr> 
    ## 1 4 Av… 25th St                  40.7            -74.0 R      <NA>   <NA>  
    ## 2 4 Av… 25th St                  40.7            -74.0 R      <NA>   <NA>  
    ## 3 4 Av… 36th St                  40.7            -74.0 N      R      <NA>  
    ## 4 4 Av… 36th St                  40.7            -74.0 N      R      <NA>  
    ## 5 4 Av… 36th St                  40.7            -74.0 N      R      <NA>  
    ## # ... with 1,863 more rows, and 12 more variables: route4 <chr>,
    ## #   route5 <chr>, route6 <chr>, route7 <chr>, route8 <int>, route9 <int>,
    ## #   route10 <int>, route11 <int>, entrance_type <chr>, entry <chr>,
    ## #   vending <chr>, ada <lgl>
…
